<!DOCTYPE svg PUBLIC "-//W3C//DTD SVG 1.1//EN" "http://www.w3.org/Graphics/SVG/1.1/DTD/svg11.dtd">
<svg xmlns="http://www.w3.org/2000/svg" xmlns:pmml2svg="https://sourceforge.net/projects/pmml2svg/" xmlns:db="http://docbook.org/ns/docbook" xmlns:mml="http://www.w3.org/1998/Math/MathML" xmlns:c="http://cnx.rice.edu/cnxml" xmlns:xlink="http://www.w3.org/1999/xlink" xmlns:md="http://cnx.rice.edu/mdml" xmlns:bib="http://bibtexml.sf.net/" xmlns:ext="http://cnx.org/ns/docbook+" version="1.1" width="59.067351333333335pt" height="13.882000000000001pt" viewBox="0 0 59.067351333333335 13.882000000000001">
                     <metadata>
                        <pmml2svg:baseline-shift>2.25</pmml2svg:baseline-shift>
                     </metadata>
                     <g stroke="none" fill="#000000" text-rendering="optimizeLegibility">
                        <g xmlns:doc="http://nwalsh.com/xsl/documentation/1.0" style="fill: ; background-color: transparent; ">
                           <g style="fill: ; background-color: transparent; ">
                              <text style="fill: black; background-color: transparent; font-family: STIXGeneral; " x="2" y="11.632000000000001" font-size="10" font-family="STIXGeneral">3</text>
                              <text x="7" y="11.632000000000001" font-size="10" style="fill: black; background-color: transparent; font-family: STIXGeneral; ">×</text>
                              <text style="fill: black; background-color: transparent; font-family: STIXGeneral; " x="13.95556" y="11.632000000000001" font-size="10" font-family="STIXGeneral">10</text>
                              <text style="fill: black; background-color: transparent; font-family: STIXGeneral; " x="24.622226666666666" y="7.408" font-size="8" font-family="STIXGeneral">8</text>
                              <text style="fill: black; background-color: transparent; font-family: STIXGeneral; " x="31.788896666666666" y="11.632000000000001" font-size="10" font-family="STIXGeneral">m</text>
                              <text x="41.23556666666667" y="11.632000000000001" font-size="10" style="fill: black; background-color: transparent; font-family: STIXGeneral; ">·</text>
                              <text style="fill: black; background-color: transparent; font-family: STIXGeneral; " x="45.40223666666667" y="11.632000000000001" font-size="10" font-family="STIXGeneral">s</text>
                              <g style="fill: ; background-color: transparent; ">
                                 <text x="49.95890333333333" y="7.520000000000002" font-size="8" style="fill: black; background-color: transparent; font-family: STIXGeneral; ">-</text>
                                 <text style="fill: black; background-color: transparent; font-family: STIXGeneral; " x="53.067351333333335" y="7.520000000000002" font-size="8" font-family="STIXGeneral">1</text>
                              </g>
                           </g>
                        </g>
                     </g>
                  </svg>
